Greg Johnson's Blog – blog-2
…
averages %>%
  arrange(desc(PPG))

# A tibble: 363 × 6
   School           TotalPoints TotalOpponentPoints TotalGames   PPG OppPPG
   <chr>                  <dbl>               <dbl>      <dbl> <dbl>  <dbl>
 1 Gonzaga                 2727                2282         31  88.0   73.6
 2 Toledo                  2751                2443         32  86.0   76.3
 3 Oral Roberts            2702                2261         32  84.4   70.7
 4 Arizona                 2577                2229         31  83.1   71.9
 5 Youngstown State        2658                2321         32  83.1   72.5
 6 Southern Utah           2574                2280         31  83.0   73.5
 7 Alabama                 2568                2156         31  82.8   69.5
 8 Cornell                 2227                2049         27  82.5   75.9
 9 UAB                     2634                2294         32  82.3   71.7
10 Xavier                  2546                2309         31  82.1   74.5
# ℹ 353 more rows
…
stats %>%
  arrange(desc(OverallSOS))

# A tibble: 363 × 34
    Rank School     Games OverallWins OverallLosses WinPct OverallSRS OverallSOS
   <dbl> <chr>      <dbl>       <dbl>         <dbl>  <dbl>      <dbl>      <dbl>
 1   134 Kansas        31          25             6  0.806       19.8      12.5 
 2   225 Oklahoma      31          15            16  0.484       12.3      12.0 
 3   176 Michigan …    30          19            11  0.633       14.5      11.3 
 4    20 Baylor        31          22             9  0.71        18.5      11.2 
 5   349 West Virg…    31          18            13  0.581       16.8      11.1 
 6   226 Oklahoma …    31          17            14  0.548       13.7      11.0 
 7   305 Texas         31          23             8  0.742       20.7      10.6 
 8   128 Iowa State    30          18            12  0.6         16.8      10.4 
 9     4 Alabama       31          26             5  0.839       23.3      10.0 
10   136 Kansas St…    31          23             8  0.742       17.0       9.85
# ℹ 353 more rows
# ℹ 26 more variables: ConferenceWins <dbl>, ConferenceLosses <dbl>,
#   HomeWins <dbl>, HomeLosses <dbl>, AwayWins <dbl>, AwayLosses <dbl>,
#   ForPoints <dbl>, OppPoints <dbl>, Minutes <dbl>, FieldGoalsMade <dbl>,
#   FieldGoalsAttempted <dbl>, FieldGoalPCT <dbl>, ThreePointMade <dbl>,
#   ThreePointAttempts <dbl>, ThreePointPct <dbl>, FreeThrowsMade <dbl>,
#   FreeThrowsAttempted <dbl>, FreeThrowPCT <dbl>, OffensiveRebounds <dbl>, …
…
Residual standard error: 2.119 on 62 degrees of freedom
Multiple R-squared:  0.5897,    Adjusted R-squared:  0.5831 
F-statistic: 89.12 on 1 and 62 DF,  p-value: 1.317e-13

residualmodel <- residualmodel %>% mutate(predicted = predict(fit), residuals = residuals(fit))

residualmodel %>% arrange(desc(residuals)) %>% select(School, averagedifferential, WinPct, predicted, residuals)

# A tibble: 64 × 5
   School            averagedifferential WinPct predicted residuals
   <chr>                           <dbl>  <dbl>     <dbl>     <dbl>
 1 Tennessee                       14.4   0.71       7.79      6.63
 2 Houston                         19.5   0.935     14.4       5.08
 3 Connecticut                     14.2   0.767      9.47      4.73
 4 Creighton                        8.97  0.645      5.87      3.10
 5 Gonzaga                         14.4   0.839     11.6       2.75
 6 Grand Canyon                     8.58  0.645      5.87      2.71
 7 Arkansas                         7.58  0.613      4.93      2.65
 8 Illinois                         8.03  0.645      5.87      2.16
 9 Saint Mary's (CA)               12.6   0.806     10.6       1.95
10 Iowa State                       6.30  0.6        4.54      1.76
# ℹ 54 more rows
…
danceresidual %>%
  arrange(desc(averagedifferential))

# A tibble: 64 × 35
    Rank School     Games OverallWins OverallLosses WinPct OverallSRS OverallSOS
   <dbl> <chr>      <dbl>       <dbl>         <dbl>  <dbl>      <dbl>      <dbl>
 1   115 Houston       31          29             2  0.935      23.9        4.39
 2   301 Tennessee     31          22             9  0.71       22.6        8.23
 3   104 Gonzaga       31          26             5  0.839      19.6        7.38
 4    61 Connectic…    30          23             7  0.767      21.3        7.15
 5   325 UCLA          31          27             4  0.871      22.6        8.62
 6    57 College o…    32          29             3  0.906       8.82      -4.66
 7   229 Oral Robe…    32          28             4  0.875       9.37      -2.67
 8    89 Florida A…    31          28             3  0.903      13.0        0.43
 9     4 Alabama       31          26             5  0.839      23.3       10.0 
10   259 Saint Mar…    31          25             6  0.806      19.0        6.7 
# ℹ 54 more rows
# ℹ 27 more variables: ConferenceWins <dbl>, ConferenceLosses <dbl>,
#   HomeWins <dbl>, HomeLosses <dbl>, AwayWins <dbl>, AwayLosses <dbl>,
#   ForPoints <dbl>, OppPoints <dbl>, Minutes <dbl>, FieldGoalsMade <dbl>,
#   FieldGoalsAttempted <dbl>, FieldGoalPCT <dbl>, ThreePointMade <dbl>,
#   ThreePointAttempts <dbl>, ThreePointPct <dbl>, FreeThrowsMade <dbl>,
#   FreeThrowsAttempted <dbl>, FreeThrowPCT <dbl>, OffensiveRebounds <dbl>, …
