Greg Johnson’s Blog - Fantasy Football Title
…
Code

fantasy22 %>%
  arrange(desc(Age))

# A tibble: 673 × 33
   Rk    Player     Tm    FantPos   Age     G    GS   Cmp PassAtt PassYds PassTD
   <chr> <chr>      <chr> <chr>   <dbl> <dbl> <dbl> <dbl>   <dbl>   <dbl>  <dbl>
 1 79    Tom Brady  TAM   "QB"       45    17    17   490     733    4694     25
 2 80    Aaron Rod… GNB   "QB"       39    17    17   350     542    3695     26
 3 332   Marcedes … GNB   "TE"       38    17    17     0       0       0      0
 4 590   Clark Har… CIN   ""         38     1     0     0       0       0      0
 5 94    Matt Ryan  IND   "QB"       37    12    12   309     461    3057     14
 6 228   Joe Flacco NYJ   "QB"       37     5     4   110     191    1051      5
 7 541   Brian Hoy… NWE   "QB"       37     1     1     5       6      37      0
 8 623   Matthew S… NWE   ""         37    17     0     0       0       0      0
 9 645   Chad Henne KAN   "QB"       37     3     0     0       2       0      0
10 282   Colt McCoy ARI   "QB"       36     4     3    90     132     780      1
# ℹ 663 more rows
# ℹ 22 more variables: Int <dbl>, RushAtt <dbl>, RushYds <dbl>, RushYPA <dbl>,
#   RushTD <dbl>, RecTgt <dbl>, Rec <dbl>, RecYds <dbl>, RecYPR <dbl>,
#   RecTD <dbl>, Fmb <dbl>, FmbL <dbl>, RecRushTD <dbl>, TwoPCMade <dbl>,
#   TwoPCPass <dbl>, FantPt <dbl>, PPR <dbl>, DKPt <dbl>, FDPt <dbl>,
#   VBD <dbl>, PosRank <dbl>, OvRank <dbl>
…
Example Text

Code

fantasystats22 <- fantasydata22 %>%
  filter(PPR>0)

Code

fantasystats22 %>%
  arrange(PPR)

# A tibble: 572 × 33
   Rk    Player     Tm    FantPos   Age     G    GS   Cmp PassAtt PassYds PassTD
   <chr> <chr>      <chr> <chr>   <dbl> <dbl> <dbl> <dbl>   <dbl>   <dbl>  <dbl>
 1 594   Jordan Ho… NOR   RB         28     2     0     0       0       0      0
 2 637   Damien Wi… ATL   RB         30     1     1     0       0       0      0
 3 561   Nick Bell… SEA   RB         33    16     0     0       0       0      0
 4 601   Case Keen… BUF   QB         34     2     0     2       7       8      0
 5 577   Jacob Eas… CAR   QB         25     1     0     3       5      59      0
 6 597   Duke John… BUF   RB         29     1     0     0       0       0      0
 7 646   Ihmir Smi… 2TM   WR         23     8     0     0       0       0      0
 8 540   Kylin Hill GNB   RB         24     2     0     0       0       0      0
 9 544   Josh John… SFO   QB         36     2     0     1       2      10      0
10 530   Brandon A… CIN   QB         30     1     0     3       3      22      0
# ℹ 562 more rows
# ℹ 22 more variables: Int <dbl>, RushAtt <dbl>, RushYds <dbl>, RushYPA <dbl>,
#   RushTD <dbl>, RecTgt <dbl>, Rec <dbl>, RecYds <dbl>, RecYPR <dbl>,
#   RecTD <dbl>, Fmb <dbl>, FmbL <dbl>, RecRushTD <dbl>, TwoPCMade <dbl>,
#   TwoPCPass <dbl>, FantPt <dbl>, PPR <dbl>, DKPt <dbl>, FDPt <dbl>,
#   VBD <dbl>, PosRank <dbl>, OvRank <dbl>
…
