Greg Johnson’s Blog - Using Code to Predict the 2024 March Madness Tournament
…
game_split <- initial_split(modelgames, prop = .8)
game_train <- training(game_split)
game_test <- testing(game_split)

game_recipe <- 
  recipe(team_result ~ ., data = game_train) |> 
  update_role(game_id, game_date, team_short_display_name, opponent_team_short_display_name, season, new_role = "ID") |>
  step_normalize(all_predictors())

summary(game_recipe)

# A tibble: 23 × 4
   variable                                   type      role      source  
   <chr>                                      <list>    <chr>     <chr>   
 1 game_id                                    <chr [2]> ID        original
 2 game_date                                  <chr [1]> ID        original
 3 team_short_display_name                    <chr [3]> ID        original
 4 opponent_team_short_display_name           <chr [3]> ID        original
 5 season                                     <chr [2]> ID        original
 6 team_season_offensive_efficiency           <chr [2]> predictor original
 7 team_season_defensive_efficiency           <chr [2]> predictor original
 8 opponent_season_offensive_efficiency       <chr [2]> predictor original
 9 opponent_season_defensive_efficiency       <chr [2]> predictor original
10 opponent_rolling_mean_offensive_efficiency <chr [2]> predictor original
# ℹ 13 more rows
…
